<?xml version="1.0" encoding="UTF-8"?>
<svg width="59px" height="70px" viewBox="0 0 59 70" version="1.1" xmlns="http://www.w3.org/2000/svg" xmlns:xlink="http://www.w3.org/1999/xlink">
    <!-- Generator: Sketch 60 (88103) - https://sketch.com -->
    <title>Copia de security-system</title>
    <desc>Created with Sketch.</desc>
    <g id="Page-1" stroke="none" stroke-width="1" fill="none" fill-rule="evenodd">
        <g id="registro-01-pc" transform="translate(-690.000000, -342.000000)" fill-rule="nonzero">
            <g id="form" transform="translate(495.000000, 312.000000)">
                <g id="icon-login" transform="translate(171.000000, 15.000000)">
                    <g id="Copia-de-security-system" transform="translate(24.000000, 15.000000)">
                        <path d="M29.5,0 C17.2762431,0 7.33425414,10.0470588 7.33425414,22.4 L7.33425414,24.2117647 L5.70441989,24.2117647 C2.57513812,24.2117647 0,26.8141176 0,29.9764706 L0,57.6470588 C0,64.4658824 5.47624309,70 12.2237569,70 L46.7762431,70 C53.5237569,70 59,64.4658824 59,57.6470588 L59,29.9764706 C59,26.8141176 56.4248619,24.2117647 53.2955801,24.2117647 L51.6657459,24.2117647 L51.6657459,22.4 C51.6657459,10.0141176 41.7237569,0 29.5,0 L29.5,0 Z M12.2237569,22.3670588 C12.2237569,12.7482353 19.981768,4.90823529 29.5,4.90823529 C39.018232,4.90823529 46.7762431,12.7482353 46.7762431,22.3670588 L46.7762431,24.1788235 L41.8867403,24.1788235 L41.8867403,22.3670588 C41.8867403,15.4823529 36.3453039,9.84941176 29.5,9.84941176 C22.6546961,9.84941176 17.1132597,15.4494118 17.1132597,22.3670588 L17.1132597,24.1788235 L12.2237569,24.1788235 L12.2237569,22.3670588 Z M36.9972376,22.3670588 L36.9972376,24.1788235 L22.0353591,24.1788235 L22.0353591,22.3670588 C22.0353591,18.1835294 25.3928177,14.7905882 29.5325967,14.7905882 C33.639779,14.8235294 36.9972376,18.2164706 36.9972376,22.3670588 Z M53.2955801,29.12 C53.7519337,29.12 54.1104972,29.4823529 54.1104972,29.9435294 L54.1104972,32.6447059 L27.218232,32.6447059 C25.881768,32.6447059 24.7734807,33.7647059 24.7734807,35.1152941 C24.7734807,36.4658824 25.881768,37.5858824 27.218232,37.5858824 L54.1104972,37.5858824 L54.1104972,57.6141176 C54.1104972,61.6988235 50.818232,65.0258824 46.7762431,65.0258824 L12.2237569,65.0258824 C8.18176796,65.0258824 4.88950276,61.6988235 4.88950276,57.6141176 L4.88950276,37.6188235 L15.8093923,37.6188235 C17.1458564,37.6188235 18.2541436,36.4988235 18.2541436,35.1482353 C18.2541436,33.7976471 17.1458564,32.6776471 15.8093923,32.6776471 L4.88950276,32.6776471 L4.88950276,29.9764706 C4.88950276,29.5152941 5.2480663,29.1529412 5.70441989,29.1529412 L53.2955801,29.1529412 L53.2955801,29.12 Z" id="Shape" fill="#484591"></path>
                        <path d="M27.5510204,56.9333333 L27.5510204,59.5 C27.5510204,60.8666667 28.6612245,62 30,62 C31.3387755,62 32.4489796,60.8666667 32.4489796,59.5 L32.4489796,56.9333333 C35.6816327,55.8666667 38,52.8 38,49.1666667 C38,44.6666667 34.4081633,41 30,41 C25.5918367,41 22,44.6666667 22,49.1666667 C22,52.8 24.3183673,55.8666667 27.5510204,56.9333333 L27.5510204,56.9333333 Z M30,46 C31.6979592,46 33.1020408,47.4333333 33.1020408,49.1666667 C33.1020408,50.9 31.6979592,52.3333333 30,52.3333333 C28.3020408,52.3333333 26.8979592,50.9 26.8979592,49.1666667 C26.8979592,47.4333333 28.3020408,46 30,46 Z" id="Shape" fill="#DADADA"></path>
                    </g>
                </g>
            </g>
        </g>
    </g>
</svg>