<svg width="87" height="80" xmlns="http://www.w3.org/2000/svg">
 <style type="text/css">.st0{fill:#76BC21;}
	.st1{fill:#FFCD00;}
	.st2{fill:#DD8797;}
	.st3{fill:#00ADE7;}
	.st4{fill:#0075C9;}
	.st5{fill:#8F4899;}
	.st6{fill:#FF8300;}
	.st7{fill:#007565;}
	.st8{fill:#00A887;}
	.st9{fill:#002169;}
	.st10{fill:#005CB9;}
	.st11{fill:#73308A;}
	.st12{fill:#B4008D;}
	.st13{fill:#FF595A;}</style>

 <g>
  <title>Layer 1</title>
  <g stroke="null" id="svg_2">
   <path stroke="null" id="svg_3" d="m5.29881,25.2l5.07975,0c0.49802,0 0.99603,0 1.49405,-0.1c0.29881,0 0.49802,-0.3 0.59762,-0.6c1.99206,-9.2 10.05991,-16.1 19.821,-16.1l1.09563,0c0.19921,-1.1 0.29881,-2.2 0.29881,-3.4l0,-3.6l-1.39444,0c-13.84482,0 -25.29917,10.4 -26.99242,23.8z" class="st0"/>
   <path stroke="null" id="svg_4" d="m28.10791,71.1c-9.16348,-2 -16.03609,-10.1 -16.03609,-19.9l0,-1.1c-1.09563,-0.2 -2.19127,-0.3 -3.3865,-0.3l-3.68531,0l0,1.4c0,13.9 10.35872,25.4 23.70552,27.2l0,-5.1c0,-0.5 0,-1 -0.0996,-1.5c0,-0.4 -0.19921,-0.6 -0.49802,-0.7z" class="st1"/>
   <path stroke="null" id="svg_5" d="m75.02094,54.9c-0.29881,0 -0.49802,0.3 -0.59762,0.6c-1.99206,9.2 -10.05991,16.1 -19.821,16.1l-1.09563,0c-0.19921,1.1 -0.29881,2.2 -0.29881,3.4c0,0 0,0 0,0l0,3.7l1.39444,0c13.84482,0 25.29917,-10.4 27.09203,-23.8l-5.07975,0c-0.49802,-0.1 -1.09563,-0.1 -1.59365,0z" class="st2"/>
   <path stroke="null" id="svg_6" d="m58.18802,1.6l0,5.1c0,0.5 0,1 0.0996,1.5c0,0.3 0.29881,0.5 0.59762,0.6c9.16348,2 16.03609,10.1 16.03609,19.9l0,1.1c1.09563,0.2 2.19127,0.3 3.3865,0.3l3.68531,0l0,-1.4c0,-13.8 -10.35872,-25.3 -23.80513,-27.1z" class="st3"/>
   <polygon stroke="null" id="svg_7" points="33.68567447965211,74.9000015258789 33.68567447965211,74.9000015258789 33.68567447965211,78.5999984741211 33.68567447965211,78.5999984741211 33.68567447965211,74.9000015258789 " class="st4"/>
   <polygon stroke="null" id="svg_8" points="53.30747392773628,78.5999984741211 53.30747392773628,78.5999984741211 53.30747392773628,74.9000015258789 53.30747392773628,74.9000015258789 53.30747392773628,74.9000015258789 " class="st5"/>
   <polygon stroke="null" id="svg_9" points="53.30747392773628,5.099999904632568 53.30747392773628,5.099999904632568 53.30747392773628,1.399999976158142 53.30747392773628,1.399999976158142 53.30747392773628,5.099999904632568 " class="st4"/>
   <polygon stroke="null" id="svg_10" points="33.68567447965211,1.399999976158142 33.68567447965211,1.399999976158142 33.68567447965211,5.099999904632568 33.68567447965211,5.099999904632568 33.68567447965211,5.099999904632568 " class="st5"/>
   <path stroke="null" id="svg_11" d="m36.47456,60.5c-0.89643,-1.4 -1.99206,-2.6 -3.1873,-3.8l-6.4742,-6.5c-1.09563,-1.2 -2.39047,-2.2 -3.78492,-3.2c-4.18333,-2.9 -9.16348,-4.4 -14.34284,-4.4l-3.68531,0l0,7.2l3.68531,0c4.98015,0 9.56189,1.9 13.1476,5.5l6.4742,6.5c3.48611,3.5 5.47817,8.2 5.47817,13.2l0,3.7l7.07182,0l0,-3.7c0,-5.3 -1.49405,-10.2 -4.38253,-14.5z" class="st6"/>
   <path stroke="null" id="svg_12" d="m39.16384,24.8c-0.59762,0.8 -1.29484,1.5 -2.09166,2.3l-6.4742,6.5c-0.69722,0.7 -1.49405,1.4 -2.29087,2.1c-2.19127,1.8 -4.58174,3.3 -7.07182,4.4c-3.88452,1.7 -8.16745,2.6 -12.54998,2.6l0,0c5.17936,0 10.15951,1.5 14.34284,4.4c1.79285,-0.7 3.58571,-1.6 5.27896,-2.6c2.09166,-1.3 4.08372,-2.7 5.87658,-4.4c0.49802,-0.4 0.99603,-0.9 1.39444,-1.4l6.4742,-6.5c0.49802,-0.5 0.89643,-1 1.39444,-1.4c-1.59365,-2 -3.08769,-3.9 -4.28293,-6z" class="st7"/>
   <path stroke="null" id="svg_13" d="m33.68568,1.4l0,3.7c0,5 -1.89246,9.6 -5.47817,13.2l-6.4742,6.5c-3.48611,3.5 -8.16745,5.5 -13.1476,5.5l-3.58571,0l0,7.2l3.68531,0c5.17936,0 10.15951,-1.5 14.34284,-4.4c1.39444,-0.9 2.58968,-2 3.78492,-3.2l6.4742,-6.5c1.19524,-1.2 2.19127,-2.5 3.1873,-3.8c2.88849,-4.2 4.38253,-9.2 4.38253,-14.4l0,-3.8l-7.17142,0z" class="st8"/>
   <path stroke="null" id="svg_14" d="m56.39517,33.5l-6.4742,-6.5c-0.69722,-0.7 -1.39444,-1.5 -2.09166,-2.3c-1.79285,-2.2 -3.2869,-4.6 -4.38253,-7.1c-1.69325,-3.9 -2.58968,-8.1 -2.58968,-12.5l0,0c0,5.2 -1.49405,10.2 -4.38253,14.4l0,0c0.69722,1.8 1.59365,3.6 2.58968,5.3c1.29484,2.1 2.68928,4.1 4.38253,5.9c0.39841,0.5 0.89643,1 1.39444,1.4l6.4742,6.5c0.49802,0.5 0.99603,0.9 1.39444,1.4c1.79285,-1.7 3.78492,-3.1 5.87658,-4.4c-0.69722,-0.6 -1.49405,-1.3 -2.19127,-2.1z" class="st9"/>
   <path stroke="null" id="svg_15" d="m78.30784,30.2c-4.98015,0 -9.56189,-1.9 -13.1476,-5.5l-6.4742,-6.5c-3.48611,-3.5 -5.47817,-8.2 -5.47817,-13.2l0,-3.6l-7.17142,0l0,3.7c0,5.2 1.49405,10.2 4.38253,14.4c0.89643,1.4 1.99206,2.6 3.1873,3.8l6.4742,6.5c1.19524,1.2 2.49008,2.2 3.78492,3.2c4.18333,2.9 9.16348,4.4 14.34284,4.4l3.68531,0l0,-7.2l0,0l0,0l-3.58571,0z" class="st10"/>
   <path stroke="null" id="svg_16" d="m78.30784,37.4c-5.17936,0 -10.15951,-1.5 -14.34284,-4.4c-1.79285,0.7 -3.58571,1.6 -5.27896,2.6c-2.09166,1.3 -4.08372,2.7 -5.87658,4.4c-0.49802,0.4 -0.99603,0.9 -1.39444,1.4l-6.5738,6.5c-0.49802,0.5 -0.89643,1 -1.39444,1.4c1.69325,1.8 3.08769,3.8 4.38253,5.9c0.59762,-0.8 1.29484,-1.5 2.09166,-2.3l6.4742,-6.5c0.69722,-0.7 1.49405,-1.4 2.29087,-2.1c2.19127,-1.8 4.58174,-3.3 7.07182,-4.4c3.88452,-1.6 8.16745,-2.5 12.54998,-2.5l0,0z" class="st11"/>
   <path stroke="null" id="svg_17" d="m78.30784,42.6c-5.17936,0 -10.15951,1.5 -14.34284,4.4c-1.39444,0.9 -2.58968,2 -3.78492,3.2l-6.4742,6.5c-1.19524,1.2 -2.19127,2.5 -3.1873,3.8l0,0c-2.88849,4.2 -4.38253,9.2 -4.38253,14.4l0,3.7l7.17142,0l0,-3.7c0,0 0,0 0,0c0,-5 1.89246,-9.6 5.47817,-13.2l6.4742,-6.5c3.48611,-3.5 8.16745,-5.5 13.1476,-5.5l3.68531,0l0,-7.2l-3.78492,0l0,0.1z" class="st12"/>
   <path stroke="null" id="svg_18" d="m47.82931,55.2c-1.29484,-2.1 -2.68928,-4.1 -4.38253,-5.9c-0.39841,-0.5 -0.89643,-1 -1.39444,-1.4l-6.4742,-6.5c-0.49802,-0.5 -0.99603,-0.9 -1.39444,-1.4c-1.79285,1.7 -3.78492,3.1 -5.87658,4.4c0.79682,0.6 1.49405,1.3 2.29087,2.1l6.4742,6.5c0.69722,0.7 1.39444,1.5 2.09166,2.3c1.79285,2.2 3.2869,4.6 4.38253,7.1c1.69325,3.9 2.58968,8.2 2.58968,12.6c0,-5.2 1.49405,-10.2 4.38253,-14.4l0,0c-0.79682,-1.9 -1.59365,-3.7 -2.68928,-5.4z" class="st13"/>
  </g>
 </g>
</svg>